{
 "autoname": "naming_series:",
 "creation": "2019-10-07 12:02:24.682585",
 "doctype": "DocType",
 "engine": "InnoDB",
 "field_order": [
  "section_break_1",
  "naming_series",
  "date",
  "column_break_4",
  "comapny",
  "renting_details_section",
  "equipment_renting_details",
  "amended_from"
 ],
 "fields": [
  {
   "fieldname": "section_break_1",
   "fieldtype": "Section Break"
  },
  {
   "fieldname": "naming_series",
   "fieldtype": "Select",
   "hidden": 1,
   "label": "Naming Series",
   "options": "DTS-.YY.MM.-.####"
  },
  {
   "fieldname": "amended_from",
   "fieldtype": "Link",
   "label": "Amended From",
   "no_copy": 1,
   "options": "Daily Equipment Renting",
   "print_hide": 1,
   "read_only": 1
  },
  {
   "default": "Today",
   "fieldname": "date",
   "fieldtype": "Date",
   "label": "Date"
  },
  {
   "fieldname": "comapny",
   "fieldtype": "Link",
   "label": "Comapny",
   "options": "Company"
  },
  {
   "fieldname": "renting_details_section",
   "fieldtype": "Section Break",
   "label": "Renting Details"
  },
  {
   "fieldname": "equipment_renting_details",
   "fieldtype": "Table",
   "label": "Equipment Renting Details",
   "options": "Daily Renting Details"
  },
  {
   "fieldname": "column_break_4",
   "fieldtype": "Column Break"
  }
 ],
 "is_submittable": 1,
 "modified": "2019-10-10 23:08:22.007358",
 "modified_by": "Administrator",
 "module": "Rental Operation",
 "name": "Daily Equipment Renting",
 "owner": "Administrator",
 "permissions": [
  {
   "create": 1,
   "delete": 1,
   "email": 1,
   "export": 1,
   "print": 1,
   "read": 1,
   "report": 1,
   "role": "System Manager",
   "share": 1,
   "submit": 1,
   "write": 1
  },
  {
   "create": 1,
   "delete": 1,
   "email": 1,
   "export": 1,
   "print": 1,
   "read": 1,
   "report": 1,
   "role": "Accounts User",
   "share": 1,
   "submit": 1,
   "write": 1
  }
 ],
 "quick_entry": 1,
 "sort_field": "modified",
 "sort_order": "ASC",
 "track_changes": 1
}