{
 "autoname": "hash",
 "creation": "2019-10-07 12:37:44.172708",
 "doctype": "DocType",
 "editable_grid": 1,
 "engine": "InnoDB",
 "field_order": [
  "equipment",
  "location",
  "equipment_name",
  "party",
  "party_name",
  "renting_type",
  "column_break_5",
  "handling_employee",
  "employee_name",
  "item_partner_group",
  "partner_group_account",
  "sales_person",
  "actual_hours",
  "hourly_rate",
  "reason_to_change_hours",
  "renting_cost"
 ],
 "fields": [
  {
   "fieldname": "equipment",
   "fieldtype": "Link",
   "in_list_view": 1,
   "label": "Equipment",
   "options": "Item",
   "reqd": 1
  },
  {
   "fetch_from": "equipment.item_name",
   "fieldname": "equipment_name",
   "fieldtype": "Data",
   "label": "Equipment Name",
   "read_only": 1
  },
  {
   "fieldname": "handling_employee",
   "fieldtype": "Link",
   "in_list_view": 1,
   "label": "Handling Employee",
   "options": "Employee",
   "reqd": 1
  },
  {
   "fetch_from": "handling_employee.employee_name",
   "fieldname": "employee_name",
   "fieldtype": "Data",
   "label": "Employee Name",
   "read_only": 1
  },
  {
   "fetch_from": "equipment.partner_group",
   "fieldname": "item_partner_group",
   "fieldtype": "Link",
   "label": "Item Partner Group",
   "options": "Sales Partner Group",
   "read_only": 1
  },
  {
   "fetch_from": "equipment.partner_group_account",
   "fieldname": "partner_group_account",
   "fieldtype": "Link",
   "label": "Partner Group Account",
   "options": "Account",
   "read_only": 1
  },
  {
   "allow_on_submit": 1,
   "fieldname": "renting_cost",
   "fieldtype": "Currency",
   "in_list_view": 1,
   "label": "Renting Cost",
   "options": "Currency",
   "reqd": 1
  },
  {
   "fieldname": "party",
   "fieldtype": "Link",
   "in_list_view": 1,
   "label": "Party",
   "options": "Customer",
   "reqd": 1
  },
  {
   "fetch_from": "party.customer_name",
   "fieldname": "party_name",
   "fieldtype": "Data",
   "label": "Party Name",
   "read_only": 1
  },
  {
   "fieldname": "column_break_5",
   "fieldtype": "Column Break"
  },
  {
   "fieldname": "location",
   "fieldtype": "Link",
   "in_list_view": 1,
   "label": "Location",
   "options": "Location"
  },
  {
   "fieldname": "sales_person",
   "fieldtype": "Link",
   "label": "Sales Person",
   "options": "Sales Person"
  },
  {
   "allow_on_submit": 1,
   "depends_on": "eval:doc.renting_type == \"Hourly\"",
   "fieldname": "actual_hours",
   "fieldtype": "Int",
   "label": "Rented Hours"
  },
  {
   "allow_on_submit": 1,
   "depends_on": "eval:doc.renting_type == \"Hourly\"",
   "fieldname": "hourly_rate",
   "fieldtype": "Currency",
   "label": "Hourly Rate",
   "options": "Currency"
  },
  {
   "allow_on_submit": 1,
   "fieldname": "reason_to_change_hours",
   "fieldtype": "Small Text",
   "hidden": 1,
   "label": "Reason To change Hours"
  },
  {
   "fieldname": "renting_type",
   "fieldtype": "Select",
   "label": "Renting Type",
   "options": "\nDaily\nHourly",
   "reqd": 1
  }
 ],
 "istable": 1,
 "modified": "2019-12-21 17:16:31.847732",
 "modified_by": "Administrator",
 "module": "Rental Operation",
 "name": "Daily Renting Details",
 "owner": "Administrator",
 "permissions": [],
 "quick_entry": 1,
 "sort_field": "modified",
 "sort_order": "ASC",
 "track_changes": 1
}