{
 "add_total_row": 1,
 "creation": "2019-10-10 17:15:06.582577",
 "disable_prepared_report": 0,
 "disabled": 0,
 "docstatus": 0,
 "doctype": "Report",
 "idx": 0,
 "is_standard": "Yes",
 "modified": "2019-11-30 05:42:32.026401",
 "modified_by": "Administrator",
 "module": "Rental Operation",
 "name": "Equipment Earning and Expenditure",
 "owner": "Administrator",
 "prepared_report": 0,
 "ref_doctype": "Equipment Renting Timesheet",
 "report_name": "Equipment Earning and Expenditure",
 "report_type": "Script Report",
 "roles": [
  {
   "role": "Accounts User"
  },
  {
   "role": "Accounts Manager"
  }
 ]
}