{
 "autoname": "hash",
 "creation": "2019-09-28 12:48:22.927113",
 "doctype": "DocType",
 "editable_grid": 1,
 "engine": "InnoDB",
 "field_order": [
  "partner_name",
  "partner_distribution",
  "partner_group"
 ],
 "fields": [
  {
   "fieldname": "partner_name",
   "fieldtype": "Link",
   "in_list_view": 1,
   "label": "Partner Name",
   "options": "Sales Partner",
   "reqd": 1
  },
  {
   "fieldname": "partner_distribution",
   "fieldtype": "Float",
   "label": "Partner Distribution "
  },
  {
   "fieldname": "partner_group",
   "fieldtype": "Link",
   "label": "Partner Group",
   "options": "Sales Partner Group"
  }
 ],
 "istable": 1,
 "modified": "2019-10-08 18:31:55.212288",
 "modified_by": "Administrator",
 "module": "Rental Operation",
 "name": "Equipment Partners",
 "owner": "Administrator",
 "permissions": [],
 "quick_entry": 1,
 "sort_field": "modified",
 "sort_order": "ASC",
 "track_changes": 1
}