{
 "add_total_row": 0,
 "creation": "2019-11-30 02:35:43.944451",
 "disable_prepared_report": 0,
 "disabled": 0,
 "docstatus": 0,
 "doctype": "Report",
 "idx": 0,
 "is_standard": "Yes",
 "modified": "2019-11-30 08:41:52.271625",
 "modified_by": "Administrator",
 "module": "Rental Operation",
 "name": "Sales Person Wise Sales",
 "owner": "Administrator",
 "prepared_report": 0,
 "ref_doctype": "Sales Invoice",
 "report_name": "Sales Person Wise Sales",
 "report_type": "Script Report",
 "roles": [
  {
   "role": "Accounts Manager"
  },
  {
   "role": "Accounts User"
  }
 ]
}