{
 "creation": "2019-10-09 06:42:11.173717",
 "doctype": "DocType",
 "engine": "InnoDB",
 "field_order": [
  "equipment_name",
  "total_amount",
  "paid_amount",
  "outstanding_amount"
 ],
 "fields": [
  {
   "fieldname": "equipment_name",
   "fieldtype": "Link",
   "in_list_view": 1,
   "label": "Equipment Name",
   "options": "Item"
  },
  {
   "fieldname": "total_amount",
   "fieldtype": "Currency",
   "in_list_view": 1,
   "label": "Total Amount",
   "options": "Currency"
  },
  {
   "fieldname": "outstanding_amount",
   "fieldtype": "Currency",
   "in_list_view": 1,
   "label": "Outstanding Amount",
   "options": "Currency"
  },
  {
   "fieldname": "paid_amount",
   "fieldtype": "Currency",
   "in_list_view": 1,
   "label": "Paid Amount",
   "options": "Currency"
  }
 ],
 "istable": 1,
 "modified": "2019-10-09 11:38:27.698409",
 "modified_by": "Administrator",
 "module": "Rental Operation",
 "name": "Equipment Wise Outstanding Amount",
 "owner": "Administrator",
 "permissions": [],
 "quick_entry": 1,
 "sort_field": "modified",
 "sort_order": "ASC",
 "track_changes": 1
}